<?xml version="1.0" encoding="UTF-8"?>
<svg width="366px" height="451px" viewBox="0 0 366 451" version="1.1" xmlns="http://www.w3.org/2000/svg" xmlns:xlink="http://www.w3.org/1999/xlink">
    <!-- Generator: Sketch 53 (72520) - https://sketchapp.com -->
    <title>Gironde</title>
    <desc>Created with Sketch.</desc>
    <g id="Gironde" stroke="none" stroke-width="1" fill="none" fill-rule="evenodd" stroke-linecap="round" stroke-linejoin="round">
        <path d="M220.3,143.7 L219.8,143.1 L219.1,141.3 L218.9,140.1 L218.9,138.4 L218.7,137.6 L213.7,133.9 L211.5,133.1 L209,133 L208.8,133 L205.1,137.9 L204.2,141.8 L202.8,138.4 L201.8,134.8 L201,130.6 L200.5,130 L200.2,129.6 L199.2,125.7 L196.4,122 L196.7,118.9 L197.3,115.7 L198,112.7 L198.4,112.3 L199.2,110.2 L198.7,107.8 L198.4,107.6 L194.9,107.6 L194.7,107.3 L194.8,106 L196,103.1 L196.7,101.3 L196.8,100.5 L196.6,100.1 L196.1,99.2 L194.8,98 L193.6,97.2 L192.7,96.8 L187.1,94.3 L183.9,93 L180.5,92.6 L174.2,94.9 L171.1,93.8 L169.9,93.1 L167.6,92.5 L166,92.7 L165.5,91.9 L164.7,91.6 L163.5,91.2 L162.6,91.4 L161.6,91.3 L160.2,86.9 L160.3,83.9 L161.3,80.1 L159.4,78.8 L158.2,77.2 L157.1,76.4 L156.9,77.2 L156.3,78.2 L155.6,79 L155.6,80.1 L155.4,83.5 L155,83.7 L153.8,83.4 L153.2,82.8 L151.3,82.7 L147.6,84.1 L146,84.5 L143.9,83.2 L129.7,81.8 L129.2,81.4 L128.7,81.5 L128.1,82.3 L128,83.6 L130.8,95.3 L131.2,95.3 L131.3,95.5 L130.9,95.6 L131.4,97.7 L132.1,101.9 L132.9,110.1 L133.4,111.3 L132.1,111.4 L122.3,113.7 M220.3,143.7 L221.1,141.3 L221.8,139.8 L222,140.1 L225,140.6 L229.2,142.5 L229.1,142.8 L229.9,144.5 L233.9,151.4 L236,153.3 L239.4,153 L241.7,153.5 L242.4,153.9 L244.4,156 L249.1,157.8 L249.9,157.7 L253.7,158.4 L255.4,158.5 L256.5,159.3 L257.5,159.7 L260.2,159.1 L261.6,158 L263.9,153.8 L266.7,151.1 L267.2,151 L269.4,149.6 L272.6,149 L272.8,149.9 L273.4,150.8 L275.8,153 L277.1,154.6 L278.2,155.6 L279.3,156.3 L279.6,156.4 L280,155.7 L280.6,155.6 L281.3,156 L281.7,156.8 L282,156.8 L283.5,155.8 L283.7,155.5 L283.5,155.3 L284.2,155 L286.2,152.6 L288.1,151.1 L292,149.6 L294.2,150 L294.4,150.2 L296.1,150.1 L298.3,150.2 L302.3,151 L303.5,151.7 L304.7,153.4 L306.7,156.7 L307.3,158.1 L307.3,159.5 L307.8,161.9 L309.1,163.9 L309.5,164.3 L309.8,165.8 L309.3,166.9 L307.9,169.3 L305.4,175.9 L304.6,176.5 L303.8,176.8 L302.9,178 L302.6,180.5 L302.2,181.5 L302.1,181 L301.9,180.8 L301.9,182.2 L301.5,183.4 L301.1,185.1 L302.1,190.8 L301.3,191.6 L300.5,195.1 L299.8,196.7 L299.1,196.8 L297.3,195.2 L296.9,195.1 L295.8,199.4 L295.4,200.4 L295,200.9 L295.1,201.4 L295,203 L294.4,204.5 L294.5,206 L297,212.2 L297.9,213.1 L299.2,214.2 L300.6,216 L300.8,216.6 L298.9,219.2 L298.8,220.1 L298.4,220.9 L296.8,223.1 L296.9,223.2 L299.6,223 L302.4,224.1 L302.6,224.4 L302.3,225.9 L303.1,227.1 L304.1,227.6 L304.6,228.7 L304.4,229.3 L303.9,230.2 L303.3,229.9 L302.8,230 L302.1,231 L302,232.4 L302.2,232.9 L297.5,232.2 L294.6,232.2 L291.7,231.6 L291.3,231.6 L290.8,232.1 L290.7,232.9 L290.1,234.2 L289.2,235.2 L287,235.4 L285.2,235.9 L284.9,236.3 L284.9,237 L287.7,237.5 L292.6,238.9 L293.8,239.1 L294.9,239 L297.1,237.8 L298,237.9 L299,239 L301.6,241.1 L301.9,242.4 L301.5,243.9 L301.6,244.5 L302.1,245.2 L303.9,246 L304.6,246.1 L306.3,245.6 L307.4,245.7 L308,246.1 L308.6,247.1 L310.3,247.6 L311.8,244 L313.6,243.4 L314.9,243.3 L315.5,243.3 L316.8,243.9 L317.9,244.8 L318.8,247.8 L319.2,247.7 L319.3,247.5 L321.2,245 L322,244.8 L325.5,244.7 L328.3,245.1 L332.8,245.3 L334.9,245.9 L335.5,244.7 L334.1,241.9 L333.4,239.7 L332.9,237.4 L337.4,236.9 L338.9,236.1 L339,235.5 L339.7,235 L341.2,234.8 L342.4,235.1 L342.3,233.8 L341.7,230.6 L340.9,227.5 L340.6,226.9 L339.2,226.3 L338,225.3 L338.1,224.8 L337.1,223.8 L338.5,223.1 L340.1,222.7 L340.7,221.9 L341.8,219.3 L342.8,217.5 L343.7,218.3 L345.1,220.4 L345.5,223.7 L344.8,224.2 L343.8,225.8 L344.7,228.3 L344.4,230.8 L344.7,231.5 L345.8,232.7 L347.2,233.3 L349.1,234.6 L349.2,234.2 L349,233.5 L347.7,231.2 L347.7,230.7 L348.1,230.4 L348.9,230.4 L350.5,231.5 L351.4,231.9 L356.8,232 L359.4,233.4 L364,237.1 L365.6,239.2 L362.2,241.7 L361.9,242.7 L361.9,243.4 L362.3,244.5 L361.4,244.4 L360.3,244.9 L358.5,246.3 L356.7,246 L354.9,245.4 L353.8,245.4 L354.4,248 L354.3,249.9 L355.1,251.1 L356.2,255.4 L355.8,257.4 L356.2,259.1 L356.1,259.3 L358,262.7 L361.5,266.1 L361.5,266.3 L359.8,267.8 L355.6,269.2 L354.4,269.7 L352.1,270.2 L351.2,270.1 L350.1,269.8 L349.4,269.4 L348.4,266.5 L347.9,265.9 L345.2,265.5 L344.8,266.7 L344.2,267.8 L343.9,267.9 L343.1,268.8 L342.6,269.9 L342.1,272.5 L341.9,274.2 L342.4,276.1 L343.3,277.9 L343.3,278.2 L342.9,278.7 L339.4,279.2 L337.9,273.9 L337.7,272.5 L336.4,271 L335.5,270.6 L335,271.4 L334.5,271.7 L333.5,274.4 L332.3,274.9 L332,274.7 L330.8,274.9 L330.1,275.6 L329.1,276.4 L328.2,276.6 L325.4,274.3 L325.1,274.7 L324.7,275.8 L325,276.9 L325,279 L324.7,279.6 L324,284.1 L323.6,285 L323.1,284.7 L322.2,283.5 L320,282.4 L318.1,283.1 L317.5,283.5 L316,286.2 L316.4,286.8 L316.9,287.9 L317.2,289.3 L318.2,291.6 L323.9,292.2 L323.5,293.7 L322.9,295.3 L323.5,296.8 L323.7,296.9 L325.5,297.7 L326,297.7 L326.8,297.6 L328.4,296.5 L330.5,296.1 L330.7,296.5 L331.6,296.8 L333.8,297.1 L335,299.1 L333.7,301.4 L332.1,303.4 L331.4,305 L331,308.3 L329.4,308.5 L328.6,308.7 L326.1,307.2 L325.8,306 L325.4,305.6 L324.8,306.2 L324.6,307.3 L325,309.5 L325,310.2 L326.9,311.8 L328.3,313.8 L327.7,316.2 L327.4,316.1 L324.6,316.5 L323.5,317.2 L320,320.9 L319.8,321 L318.9,322 L318.3,322.2 L313.7,323.3 L312.6,323.7 L311.8,324.2 L312.7,326.9 L312,328.9 L310.5,330.8 L309.2,335.4 L308.7,335.8 L307.3,335 L302.2,334.2 L301.5,333.9 L300.3,335 L298.5,336 L297.8,337.4 L297.7,338 L296.3,337.4 L293.7,335 L292.6,334.6 L292.5,335.6 L292.6,336 L293.9,337.5 L295.9,339.4 L296.8,341 L296.6,342.2 L295,344.3 L294.8,344.5 L293.9,344.3 L293.1,344.7 L292.8,345.2 L291.1,347.1 L289.2,349.9 L289.3,351.4 L288.9,353.1 L289.1,354.8 L289.6,357.7 L289.8,360.9 L289.6,362.2 L289.9,364.2 L290.2,364.6 L290.8,364.7 L292,364.5 L292.2,364.1 L293.9,365.4 L294.5,366.8 L294.6,368.5 L293.9,369.2 L293.4,370 L291.9,370.9 L291.3,372.5 L291.2,375.4 L291.7,375.9 L290.7,376.9 L290.4,377.8 L292.3,382.2 L293,382.9 L294.2,383.5 L294.3,384.7 L295.6,385.4 L297.1,387.2 L297.1,387.5 L296.6,388.4 L295.2,389.7 L296.2,390.4 L298.3,391.1 L298,391.9 L296.2,394.6 L294,394.3 L293.5,393.9 L293.3,392.7 L292.2,392.5 L290.3,393.1 L289.3,393.7 L286.9,395.6 L286.2,396.7 L284.9,396.4 L284.5,396.5 L280.2,396.9 L278,397.8 L276.7,399 L274.6,398.8 L273,404 L274.8,405.6 L277.3,408.8 L279.1,409.2 L284.8,417.2 L282.8,418.1 L284.2,420.5 L284.7,423 L284.7,424.4 L284.5,425.3 L282.5,425.7 L280.5,427.2 L279.2,430.5 L277.4,433.3 L277,432.3 L276,431.5 L275.7,431.4 L272.5,435.8 L270.3,436.6 L269.5,437.6 L268.1,438.4 L267.8,438.4 L265.1,436.5 L265.3,435.5 L264.4,435.3 L263.5,437.7 L260.3,439.9 L254.4,434.9 L253.7,433.5 L253.2,431.6 L252.1,429.4 L251.5,428.6 L249.1,426.4 L248,426.1 L246.8,426.5 L244.2,427.6 L240.6,427.5 L240.1,430.3 L241.2,446.5 L231.8,449.7 L229.9,450.4 L229.2,450.2 L221.1,447.4 L207.3,446.4 L206.6,446.1 L202.8,445.3 L201.2,436.9 L201.3,436.2 L204.2,420.5 L202.9,420.3 L200.1,420.4 L199.3,420.2 L199,419.5 L197.6,418.3 L194.9,416.5 L193.3,415.1 L193,408.8 L182.2,408.1 L173.2,403.5 L170.8,395.2 L163.2,391.9 L160.9,389.4 L153.5,386.7 L147.8,384.4 L146,383.9 L144.3,383.7 L144.4,383.7 L147.8,382 L148.2,381.5 L148.3,379.8 L147.9,374.3 L147.8,370.5 L147.5,369.8 L145,368 L144.3,367.6 L136.6,365.2 L135,367.4 L130.8,366 L129.3,365 L130.8,366 L135,367.4 L136,367.6 L135.2,369.5 L133.4,370.3 L131.4,370 L124.2,368.2 L124,368.8 L114.3,370.8 L113.1,372.3 L112.9,374.2 L112.5,374.7 L112,374.7 L111.6,374.3 L111.2,374.3 L109.6,374.5 L106.5,376.2 L104,377.2 L97.5,377.7 L82.1,371.8 L80.4,369.8 L73.6,372.3 L68.8,374.3 L55,376.5 L58.1,373.7 L60,371.6 L63.5,363.9 L66.2,357 L64.6,348.7 L63.8,347.6 L59.2,348.1 L55.6,349.1 L44.4,342.3 L42.1,341 L41.1,343.3 L37,350.6 L15.6,358 L3.1,361.9 L3.8,352.6 L3.6,347.5 L3.6,346.6 L2.5,341.4 L1.6,338.6 L1.7,337 L2,336.2 L2.3,335.8 L3.4,335.1 L4.9,333.3 L9.2,326.9 L10.3,324.7 L12.7,319.2 L14.2,315 L14.7,311.6 L14.5,306.4 L14.6,306 L16,303.4 L16.5,300.7 L17,299.8 L17.5,299.3 L18,299 L19.9,298.4 L24.4,298.4 L25.5,298.8 L28.2,300.3 L28.5,300 L28.4,299.6 L27,299 L27,298.8 L28.8,299.7 L28.5,300.7 L29.6,301.6 L29.6,302 L28,302.5 L27.7,303.2 L26.6,303.2 L26.2,303.7 L26,304.6 L26.5,305.5 L27.3,306 L27.6,306 L27.9,304.5 L27.9,306 L28.5,306 L28.1,304.3 L28.6,303.9 L29.2,303.7 L33.6,303.7 L34.3,303.8 L34.4,304.2 L34.1,305.7 L34.3,305.9 L34.5,305.8 L34.7,304.8 L35.3,304.4 L37.2,304.8 L37.9,304.1 L39.1,304.9 L39.6,305.4 L43.1,305.8 L45,304.4 L46.5,303.8 L49,304.6 L50,304.6 L51.6,303.5 L51.4,303.3 L52.1,302 L52.7,301.5 L53.1,302.1 L53.2,302.8 L53.4,303.2 L55.1,303.5 L55.3,304.4 L55.8,304.9 L57.4,305.5 L58.8,305.6 L57.2,305.1 L57,303.7 L57.2,303.2 L58.4,302.8 L59.3,302.9 L60.7,303.4 L60.9,303.3 L60.9,303.2 L60.5,301.5 L57.5,298.2 L57.3,297.6 L57.6,297.3 L57.6,296.9 L56.4,294.6 L55.8,294 L55.1,294 L54.5,293.3 L53.4,293.6 L52.5,293 L52,292.4 L52.4,292.1 L52.8,291.4 L51.1,291.8 L50.2,292.4 L48.1,290.6 L48.3,290.1 L45.7,287.8 L47,287.4 L48.4,288.4 L48.9,288.5 L49.4,288 L50.1,288.1 L50.4,288.9 L51,289 L52,288.9 L53.1,289 L53.3,288.6 L53.2,288.4 L50.1,285.8 L48,283.4 L45.3,281 L43.7,279.3 L41.7,277.9 L40.1,275.5 L39.2,274.4 L37.6,272.9 L37.1,272.7 L34.7,272.2 L33.3,269.8 L34.5,269 L34.9,268.5 L34.9,268.2 L32.8,269.9 L28,266.5 L25.9,264.2 L24.7,262.2 L24.3,262.2 L24.1,262.7 L24.3,263 L24.1,263.1 L23.7,262.8 L23.4,261.9 L22.9,261.8 L22.7,262.3 L22.8,263.2 L22.3,263.8 L22.1,264.7 L21.4,265.6 L21,265.8 L20.7,265.7 L20.4,266.3 L20.6,267.1 L20.2,267.5 L20.2,267.9 L20.6,268.4 L20.9,268.5 L21.1,268.3 L21.4,268.5 L21.6,268.8 L21.5,269.5 L22,270 L21.4,270.5 L21.5,270.7 L21.8,270.8 L21.6,271.8 L21.3,272 L19.8,272.4 L19.5,273.1 L18.8,274.1 L17.8,274.5 L17.6,275.1 L17.6,275.4 L17.9,275.4 L17.7,276.5 L16.6,277.3 L16.4,278 L16.1,278.5 L14.5,279.5 L14.3,279.9 L14.5,280.8 L13.5,281.3 L12.9,282.1 L11.1,283.2 L10.2,283.4 L10,283.8 L10,284 L10.4,284 L10.4,284.5 L9.9,285.4 L9.1,286.2 L8.9,287.3 L8,288.8 L8.1,289.4 L8,290.1 L7.5,290.7 L6.8,292.5 L6.3,296.8 L6.5,299.1 L6.5,300.8 L5.2,303.3 L4.9,305.4 L5,307 L5.4,307.1 L5.8,305.8 L5.3,304.2 L5.5,304.2 L5.9,304.6 L6.1,306 L5.9,306.9 L5.1,308.8 L5.5,309.2 L5.6,309.6 L5.2,310.7 L5.3,311.3 L4.3,312.9 L3.5,313.2 L3.3,313.2 L2.4,312.1 L1.6,310.7 L1.4,310 L1.2,308.6 L1.3,303.5 L2.2,293.7 L3.5,283 L5.2,271.6 L7.9,251.1 L10,235.3 L12.2,214.6 L14.6,192.1 L16,174.8 L16.8,166.4 L17.8,153.5 L18.5,146.7 L19.9,131.1 L21.4,119.5 L21.5,117 L22.6,106.8 L23.7,95.4 L24.2,91.1 L24.9,73.8 L24.7,60.7 L24.6,56.5 L24.7,55.7 L24.6,54 L24.9,51.8 L26.8,43.9 L26.7,40.5 L25.7,35.3 L25.5,34.4 L25.5,33.7 L26,31.2 L28.5,25.4 L30.1,21.2 L30.9,20.2 L33.4,17.9 L34.7,16.3 L34.7,16.1 L35.1,15.6 L35.7,14.6 L35.8,14.2 L37,12.6 L37.1,11.9 L38.2,11.6 L38.4,11.3 L38.9,9 L39.4,5.9 L39.7,5.8 L40.7,4 L41.5,3.5 L41.7,3.5 L41.7,3.8 L41.3,4.2 L41.9,4 L42.3,3.8 L42.2,3.4 L42.4,3.3 L43.5,3.1 L47.4,0.8 L47.7,0.4 L47.4,1.6 L46.9,2.6 L47.2,3.1 L47.4,3.1 L47.4,2.8 L47.6,2.7 L47.7,3.3 L47.4,4.7 L46.8,5.3 L46.9,6.5 L47.7,7.6 L48.8,8.7 L49.6,9.3 L50.5,9.5 L51.1,9.9 L51.5,9.8 L51.9,10.1 L52.5,11.6 L52.8,13.2 L52.2,13.1 L51.9,13.6 L52.1,14.2 L52.1,14.7 L52,14.8 L50.9,13.8 L50.3,12.2 L49.4,12.7 L49,12.5 L48.9,12 L47.7,12.7 L47.4,12.6 L47.3,12.8 L48,14 L49,14.2 L49.3,14.5 L50,15.9 L49.9,16.3 L49.4,16.2 L49.1,15.6 L49,15 L48.4,14.6 L47.9,14.9 L46.1,15.3 L45.7,15.6 L45.5,16.1 L45.6,17.4 L45.5,18 L45.6,19.1 L46,19.7 L46.7,21.2 L48.4,22.8 L50.7,24.5 L53.9,26.2 L56,27.9 L57.8,30.4 L62.3,34.6 L65,36.6 L66.5,38 L66.6,38.3 L68.3,39.8 L72.1,41.5 L77.1,44.1 L78.1,45.4 L79.9,48.3 L82.7,51.8 L83.9,53.8 L84,54.9 L86.7,56.2 L89,57.7 L93.1,61.1 L96.1,63.4 L97.9,65.6 L98.2,65.4 L98.5,65.6 L101.8,69.2 L104.4,72.4 L105.6,74.5 L106.8,75.2 L107.1,75.8 L108.2,78.7 L110.7,83.7 L112,87.3 L112.3,87.6 L113.6,90.6 L115.1,93.8 L115.5,95.7 L115.8,95.8 L116,96.4 L118.1,103.9 L119.8,111.1 L120.2,114.5 L122.3,113.7" id="Shape" stroke="#8B572A" fill="#FFF57A"></path>
    </g>
</svg>
