<?xml version="1.0" encoding="UTF-8"?>
<svg width="366px" height="451px" viewBox="0 0 366 451" version="1.1" xmlns="http://www.w3.org/2000/svg" xmlns:xlink="http://www.w3.org/1999/xlink">
    <!-- Generator: Sketch 52.6 (67491) - http://www.bohemiancoding.com/sketch -->
    <title>SCoT</title>
    <desc>Created with Sketch.</desc>
    <g id="SCoT" stroke="none" stroke-width="1" fill="none" fill-rule="evenodd" stroke-linecap="round" stroke-linejoin="round">
        <g transform="translate(1.000000, 0.000000)" fill="#AAD1FF" stroke="#03336B">
            <polygon id="SCOT-Bassin-d'Arcachon-et-du-Val-de-l'Eyre" points="82.7 251.4 88.2 267 94.9 271.8 98.4 274.6 100.9 278.5 101.8 279.6 105.9 283.1 110.7 286.9 113.6 288.8 123.1 295.4 131.4 304.9 138.9 316.2 148.9 315.4 151.1 317.8 150.2 320.4 149.5 324.8 151.7 331.7 152.8 334.3 152.3 336.4 152.3 339.7 151.9 342.3 151.3 344.3 150.4 345.7 147.8 347.4 143.9 348.1 139.4 349 135.7 348.4 128 347.5 127.2 347.4 126.6 346.7 126.2 346.6 124.2 347 123.1 347.6 122 349.8 121.8 350.6 122.2 351.6 123.3 352.5 124.7 353.9 125.9 354.9 126.4 356.2 127.2 356.3 128.7 356 129.7 356 130.9 356.7 131.2 357.4 131.3 359.8 130.8 361.7 128.3 365 129.8 366 134 367.4 135 367.6 134.2 369.5 132.4 370.3 130.4 370 123.2 368.2 123 368.8 113.3 370.8 112.1 372.3 111.9 374.2 111.5 374.7 111 374.7 110.6 374.3 110.2 374.3 108.6 374.5 105.5 376.2 103 377.2 96.5 377.7 81.1 371.8 79.4 369.8 72.6 372.3 67.8 374.3 54 376.5 57.1 373.7 59 371.6 62.5 363.9 65.2 357 63.6 348.7 62.8 347.6 58.2 348.1 54.6 349.1 43.4 342.3 41.1 341 40.1 343.3 36 350.6 14.6 358 2.1 361.9 2.8 352.6 2.6 347.5 2.6 346.6 1.5 341.4 0.6 338.6 0.7 337 1 336.2 1.3 335.8 2.4 335.1 3.9 333.3 8.2 326.9 9.3 324.7 11.7 319.2 13.2 315 13.7 311.6 13.5 306.4 13.6 306 15 303.4 15.5 300.7 16 299.8 16.5 299.3 17 299 18.9 298.4 23.4 298.4 24.5 298.8 27.2 300.3 27.5 300 27.4 299.6 26 299 26 298.8 27.8 299.7 27.5 300.7 28.6 301.6 28.6 302 27 302.5 26.7 303.2 25.6 303.2 25.2 303.7 25 304.6 25.5 305.5 26.3 306 26.6 306 26.9 304.5 26.9 306 27.5 306 27.1 304.3 27.6 303.9 28.2 303.7 32.6 303.7 33.3 303.8 33.4 304.2 33.1 305.7 33.3 305.9 33.5 305.8 33.7 304.8 34.3 304.4 36.2 304.8 36.9 304.1 38.1 304.9 38.6 305.4 42.1 305.8 44 304.4 45.5 303.8 48 304.6 49 304.6 50.6 303.5 50.4 303.3 51.1 302 51.7 301.5 52.1 302.1 52.2 302.8 52.4 303.2 54.1 303.5 54.3 304.4 54.8 304.9 56.4 305.5 57.8 305.6 56.2 305.1 56 303.7 56.2 303.2 57.4 302.8 58.3 302.9 59.7 303.4 59.9 303.3 59.9 303.2 59.5 301.5 56.5 298.2 56.3 297.6 56.6 297.3 56.6 296.9 55.4 294.6 54.8 294 54.1 294 53.5 293.3 52.4 293.6 51.5 293 51 292.4 51.4 292.1 51.8 291.4 50.1 291.8 49.2 292.4 47.1 290.6 47.3 290.1 44.7 287.8 46 287.4 47.4 288.4 47.9 288.5 48.4 288 49.1 288.1 49.4 288.9 50 289 51 288.9 52.1 289 52.3 288.6 52.2 288.4 49.1 285.8 47 283.4 44.3 281 42.7 279.3 40.7 277.9 39.1 275.5 38.2 274.4 36.6 272.9 36.1 272.7 33.7 272.2 32.3 269.8 33.5 269 33.9 268.5 33.9 268.2 31.8 269.9 27 266.5 24.9 264.2 23.7 262.2 23.3 262.2 23.1 262.7 23.3 263 23.1 263.1 22.7 262.8 22.4 261.9 21.9 261.8 21.7 262.3 21.8 263.2 21.3 263.8 21.1 264.7 20.4 265.6 20 265.8 19.7 265.7 19.4 266.3 19.6 267.1 19.2 267.5 19.2 267.9 19.6 268.4 19.9 268.5 20.1 268.3 20.4 268.5 20.6 268.8 20.5 269.5 21 270 20.4 270.5 20.5 270.7 20.8 270.8 20.6 271.8 20.3 272 18.8 272.4 18.5 273.1 17.8 274.1 16.8 274.5 16.6 275.1 16.6 275.4 16.9 275.4 16.7 276.5 15.6 277.3 15.4 278 15.1 278.5 13.5 279.5 13.3 279.9 13.5 280.8 12.5 281.3 11.9 282.1 10.1 283.2 9.2 283.4 9 283.8 9 284 9.4 284 9.4 284.5 8.9 285.4 8.1 286.2 7.9 287.3 7 288.8 7.1 289.4 7 290.1 6.5 290.7 5.8 292.5 5.3 296.8 5.5 299.1 5.5 300.8 4.2 303.3 3.9 305.4 4 307 4.4 307.1 4.8 305.8 4.3 304.2 4.5 304.2 4.9 304.6 5.1 306 4.9 306.9 4.1 308.8 4.5 309.2 4.6 309.6 4.2 310.7 4.3 311.3 3.3 312.9 2.5 313.2 2.3 313.2 1.4 312.1 0.6 310.7 0.4 310 0.2 308.6 0.3 303.5 1.2 293.7 2.5 283 4.2 271.6 6.9 251.1 8.7 251.2 15.1 250.7 15.2 250.4 22.1 249.6 26.8 246.2 41.4 244.7 49.1 246.4 49.6 244 51.4 238.2 59.2 244.3 69.5 244.1 71.4 243.8 73.6 243 75.3 241.8 77.7 240.7 82.6 239.4 87.4 237.8 82.7 251.4"></polygon>
            <polygon id="SCOT-de-l'aire-Métropolitaine-Bordelaise" points="132.2 144.3 133 152.7 133.2 155.2 133.4 157.3 133.8 159.5 135.6 162.9 136.5 164.2 137.8 165.5 139.5 167.6 140.9 169.4 143.4 173 144.3 174.3 144.9 175.1 144.6 175.3 148.8 180.4 151.1 182.6 152.2 181.8 154.3 180.8 152.6 177.4 153.9 175.6 155.4 176.4 155.9 176.6 159.2 176.7 161 177 163.4 177.6 167.8 180.3 169.3 181.6 170.6 183.1 171.7 184.4 172.9 185.4 176.3 186.8 177.5 187.8 177.7 187.9 178.1 187.3 178.4 187.3 180.2 187.9 180.9 188.2 181.4 188.8 182.2 190.6 182.6 195.2 182.6 196.5 183.1 197.9 184.1 199.7 186.1 202.7 186.7 204 187.5 206.6 188.5 209 189.3 209.7 190 210 191.1 209.7 192.6 209 196 206.5 197.3 205.8 198 205.7 199.5 205.9 201.5 207.1 203.2 208.7 201.5 211.8 201.4 212.3 201.4 213 201.8 214 203.6 216.9 205 217.6 206.1 217.9 206.6 217.9 206.3 217.4 206.2 216.9 207.4 217.2 208.1 217.9 208.2 220.9 210.4 221.8 210.9 224.8 211.8 227.3 213.3 229.5 214.3 230.5 215.2 231.1 214.7 232 212 233.8 208.5 237 207.8 239.1 208.3 240.5 208 241.1 208 242.3 208.2 243 211.6 242 213.1 242.5 213.5 242.5 213.7 241.9 214.8 240.9 215.7 240.7 219.1 240.3 219.5 240 220.9 241.5 223 243.1 223.7 243.4 222.5 245.3 221.8 248.5 220.6 251.9 220.1 252.6 220.7 253.1 220.2 253.5 219.7 253.7 219.6 254.1 219.7 255.6 219 256 219.1 256.1 219 257.1 219.2 257.6 219.5 257.9 220.7 258.2 223.2 258.3 226 259.4 225.7 260.7 225.7 261 226.3 261.4 227.6 261.3 230.4 260.4 230.6 260.1 233.5 257.2 233.9 257.9 234.6 258.2 234.2 258.3 233.6 258.1 233.4 258.3 233.6 259.8 235 261 235.9 261 235.2 262.6 233.7 264.6 231.1 264.3 231 264.8 229.8 268.6 227.9 268.8 225.4 268.6 223.9 270 223.3 271.8 222.1 273.4 221.3 274.1 219.9 274.8 220.4 275.6 221.9 277.3 222.6 278.6 222.8 279.7 222.6 281.5 222.7 282.5 222.8 283.3 220.2 285.7 218.7 288.7 219.7 289.5 221 291.4 222.1 294.1 223.3 295.1 225.1 296.9 224.7 297.2 224.2 298 223.3 298.6 222.7 298.6 220.5 297.3 218.8 297.1 218.2 297.2 217.7 297.8 217.3 298.9 214.9 300.6 213.3 302.1 210.7 300.9 208.7 299.3 208 298.4 207 297.8 206.1 293.5 205.5 291.8 205.3 291.4 205.1 291.3 201.7 290.7 199.5 291.1 198.8 291 198.3 290.4 198.2 289.6 198.5 289.2 200.1 287.4 200.5 286.3 200.3 285.7 198.4 284.6 197.4 284.1 196.5 284.1 194.6 284.8 192.8 285.8 192.2 285.9 191.6 285.7 191.2 286.2 191.2 288.6 190.9 290.4 188.9 292.8 186.2 296.7 189.8 301.2 187.9 306.1 185.9 309.2 181.6 310.4 180.5 310.4 178.9 310.2 178.9 313.4 178.9 315 184 317.1 180.3 322.3 179.1 327 177.6 327.2 176.8 327.4 174.4 328.8 168.5 328.9 165.6 328.2 164.7 332.1 160.9 336.5 156.3 335.7 152.8 334.3 151.7 331.7 149.5 324.8 150.2 320.4 151.1 317.8 148.9 315.4 138.9 316.2 131.4 304.9 123.1 295.4 113.6 288.8 110.7 286.9 105.9 283.1 101.8 279.6 100.9 278.5 98.4 274.6 94.9 271.8 88.2 267 82.7 251.4 87.4 237.8 88.3 235.3 87.7 229.2 87.6 226.1 91.7 226.5 97.1 222.8 99.5 213.3 101.9 213.4 107.3 215.3 108.2 206.7 110.1 206.6 117.5 199.6 119.6 193.2 123.8 190.6 125.5 188.4 126.8 184.4 126.6 184 125 181.4 125.5 180.1 126.4 179.1 127.3 178.7 127.4 178.4 126.7 178.7 124.9 178.5 124.4 175.5 124.8 173.6 124.5 172 123.3 169.6 122.5 168.7 122.7 168.1 123.4 168.2 123.3 167.6 122.6 167.4 122 166.6 121.7 165.5 121.8 162.8 122.1 162 121.6 161.8 120.9 160.3 121.2 158.7 119.5 159 118.4 159.3 118 159.1 118 158.8 120.3 157.2 119.4 157.2 117 155.8 116.4 155 115.3 152.2 115.5 146.3 116.1 144.1 126.4 143.4 131.6 141.3 132.2 144.3"></polygon>
            <polygon id="SCOT-Pointe-Medoc" points="46.4 1.6 45.9 2.6 46.2 3.1 46.4 3.1 46.4 2.8 46.6 2.7 46.7 3.3 46.4 4.7 45.8 5.3 45.9 6.5 46.7 7.6 47.8 8.7 48.6 9.3 49.5 9.5 50.1 9.9 50.5 9.8 50.9 10.1 51.5 11.6 51.8 13.2 51.2 13.1 50.9 13.6 51.1 14.2 51.1 14.7 51 14.8 49.9 13.8 49.3 12.2 48.4 12.7 48 12.5 47.9 12 46.7 12.7 46.4 12.6 46.3 12.8 47 14 48 14.2 48.3 14.5 49 15.9 48.9 16.3 48.4 16.2 48.1 15.6 48 15 47.4 14.6 46.9 14.9 45.1 15.3 44.7 15.6 44.5 16.1 44.6 17.4 44.5 18 44.6 19.1 45 19.7 45.7 21.2 47.4 22.8 49.7 24.5 52.9 26.2 55 27.9 56.8 30.4 61.3 34.6 64 36.6 65.5 38 65.6 38.3 67.3 39.8 71.1 41.5 76.1 44.1 77.1 45.4 78.9 48.3 81.7 51.8 82.9 53.8 83 54.9 85.7 56.2 88 57.7 92.1 61.1 91.6 62 90.9 62.9 88.8 64.8 86.5 65.3 79 64.3 76.9 63.3 75.4 62.4 72.4 67.1 71.3 69.8 70.1 72.5 68.4 74.3 66.8 74.2 65.7 73.9 64.1 74.7 61.8 76.6 60 77.3 59 77.9 55.8 81.3 53.8 83.1 53.5 83 53.1 84.3 52.1 86.4 50.8 88.5 50.1 89.2 51.8 90.8 56.4 94.5 58.7 95.1 59 94.9 63.6 95.7 65.7 97.1 68.4 98.2 68.7 98.4 67.5 100.7 67.6 103.6 68.3 106.1 69.4 106.9 68.7 115.4 70 116.9 68.1 118.3 55 115 48.8 114.1 48.2 113.8 45.6 110.2 42.6 109.4 41.4 109.3 35.2 109.1 29.6 108.4 21.6 106.8 22.7 95.4 23.2 91.1 23.9 73.8 23.7 60.7 23.6 56.5 23.7 55.7 23.6 54 23.9 51.8 25.8 43.9 25.7 40.5 24.7 35.3 24.5 34.4 24.5 33.7 25 31.2 27.5 25.4 29.1 21.2 29.9 20.2 32.4 17.9 33.7 16.3 33.7 16.1 34.1 15.6 34.7 14.6 34.8 14.2 36 12.6 36.1 11.9 37.2 11.6 37.4 11.3 37.9 9 38.4 5.9 38.7 5.8 39.7 4 40.5 3.5 40.7 3.5 40.7 3.8 40.3 4.2 40.9 4 41.3 3.8 41.2 3.4 41.4 3.3 42.5 3.1 46.4 0.8 46.7 0.4 46.4 1.6"></polygon>
            <polygon id="SCOT-du-Cubzaguais" points="191.7 168 195.3 168.7 197.4 169.5 199.3 169.2 199.8 169.2 202.9 171.6 204 173.3 204.2 174.2 204.5 174.6 205.5 174.1 208 174 208.1 173.3 210.8 173.7 209.4 176.9 208.5 179.5 208.1 181.7 208.2 182.7 209 183.3 210 184.3 210 184.6 209.5 184.7 209.3 185 209.7 186.2 209.2 188.5 208.9 189.1 208.2 190 203.8 189.7 201 189.1 201.1 189.6 200 191.3 199.3 194 198.1 196.7 197.2 198.3 196.6 198.5 196.1 198.7 195.2 199.8 191.5 201.9 186.7 204 186.1 202.7 184.1 199.7 183.1 197.9 182.6 196.5 182.6 195.2 182.2 190.6 181.4 188.8 180.9 188.2 180.2 187.9 178.4 187.3 178.7 185.9 180.1 183.8 181.6 182.1 182.4 179.9 181.6 179.4 180.6 178.1 179.4 175.9 179.9 175 180.6 174.8 181.1 173.8 181.2 172.7 180.6 171.3 180.8 170.6 181.4 169.9 187.2 168.5 187.3 168.4 188.4 167.9 191.7 168"></polygon>
            <polygon id="SCOT-du-Libournais" points="221 140.1 224 140.6 228.2 142.5 228.1 142.8 228.9 144.5 232.9 151.4 235 153.3 238.4 153 240.7 153.5 241.4 153.9 243.4 156 248.1 157.8 248.9 157.7 252.7 158.4 254.4 158.5 255.5 159.3 256.5 159.7 259.2 159.1 260.6 158 262.9 153.8 265.7 151.1 266.2 151 268.4 149.6 271.6 149 271.8 149.9 272.4 150.8 274.8 153 276.1 154.6 277.2 155.6 278.3 156.3 278.6 156.4 279 155.7 279.6 155.6 280.3 156 280.7 156.8 281 156.8 282.5 155.8 282.7 155.5 282.5 155.3 283.2 155 285.2 152.6 287.1 151.1 291 149.6 293.2 150 293.4 150.2 295.1 150.1 297.3 150.2 301.3 151 302.5 151.7 303.7 153.4 305.7 156.7 306.3 158.1 306.3 159.5 306.8 161.9 308.1 163.9 308.5 164.3 308.8 165.8 308.3 166.9 306.9 169.3 304.4 175.9 303.6 176.5 302.8 176.8 301.9 178 301.6 180.5 301.2 181.5 301.1 181 300.9 180.8 300.9 182.2 300.5 183.4 300.1 185.1 301.1 190.8 300.3 191.6 299.5 195.1 298.8 196.7 298.1 196.8 296.3 195.2 295.9 195.1 294.8 199.4 294.4 200.4 294 200.9 294.1 201.4 294 203 293.4 204.5 293.5 206 296 212.2 296.9 213.1 298.2 214.2 299.6 216 299.8 216.6 297.9 219.2 297.8 220.1 297.4 220.9 295.8 223.1 295.9 223.2 298.6 223 301.4 224.1 301.6 224.4 301.3 225.9 302.1 227.1 303.1 227.6 303.6 228.7 303.4 229.3 302.9 230.2 302.3 229.9 301.8 230 301.1 231 301 232.4 301.2 232.9 296.5 232.2 293.6 232.2 290.7 231.6 290.3 231.6 289.8 232.1 289.7 232.9 289.1 234.2 288.2 235.2 286 235.4 284.2 235.9 283.9 236.3 283.9 237 286.7 237.5 291.6 238.9 292.8 239.1 293.9 239 296.1 237.8 297 237.9 298 239 300.6 241.1 300.9 242.4 300.5 243.9 300.6 244.5 301.1 245.2 302.9 246 303.6 246.1 305.3 245.6 306.4 245.7 307 246.1 307.6 247.1 309.3 247.6 310.8 244 312.6 243.4 313.9 243.3 314.5 243.3 315.8 243.9 316.9 244.8 317.8 247.8 318.2 247.7 318.3 247.5 320.2 245 321 244.8 324.5 244.7 327.3 245.1 331.8 245.3 333.9 245.9 334.5 244.7 333.1 241.9 332.4 239.7 331.9 237.4 336.4 236.9 337.9 236.1 338 235.5 338.7 235 340.2 234.8 341.4 235.1 341.3 233.8 340.7 230.6 339.9 227.5 339.6 226.9 338.2 226.3 337 225.3 337.1 224.8 336.1 223.8 337.5 223.1 339.1 222.7 339.7 221.9 340.8 219.3 341.8 217.5 342.7 218.3 344.1 220.4 344.5 223.7 343.8 224.2 342.8 225.8 343.7 228.3 343.4 230.8 343.7 231.5 344.8 232.7 346.2 233.3 348.1 234.6 348.2 234.2 348 233.5 346.7 231.2 346.7 230.7 347.1 230.4 347.9 230.4 349.5 231.5 350.4 231.9 355.8 232 358.4 233.4 363 237.1 364.6 239.2 361.2 241.7 360.9 242.7 360.9 243.4 361.3 244.5 360.4 244.4 359.3 244.9 357.5 246.3 355.7 246 353.9 245.4 352.8 245.4 353.4 248 353.3 249.9 354.1 251.1 355.2 255.4 354.8 257.4 355.2 259.1 355.1 259.3 357 262.7 360.5 266.1 360.5 266.3 358.8 267.8 354.6 269.2 353.4 269.7 351.1 270.2 350.2 270.1 349.1 269.8 348.4 269.4 347.4 266.5 346.9 265.9 344.2 265.5 343.8 266.7 343.2 267.8 342.9 267.9 342.1 268.8 341.6 269.9 341.1 272.5 340.9 274.2 341.4 276.1 342.3 277.9 342.3 278.2 341.9 278.7 338.4 279.2 336.9 273.9 336.7 272.5 335.4 271 334.5 270.6 334 271.4 333.5 271.7 332.5 274.4 331.3 274.9 331 274.7 329.8 274.9 329.1 275.6 328.1 276.4 327.2 276.6 324.4 274.3 324.1 274.7 323.7 275.8 324 276.9 324 279 323.7 279.6 323 284.1 322.6 285 322.1 284.7 321.2 283.5 319 282.4 317.1 283.1 316.5 283.5 315 286.2 313.8 286.3 310.7 282.8 310.1 281.3 307.7 279.8 306.1 279 304.4 278.6 302.7 282.7 301.9 280.1 299.8 277.5 299.3 276.3 299.5 275.8 298.8 274 298 271.4 298.1 270.8 296.6 270.2 296.3 265.1 297.1 263.5 298 262.1 297.4 261.5 297.2 261.7 296.1 261.6 294.9 261.4 292.5 260.4 291.5 259.9 291.2 260.3 291.1 260.9 291.1 264.9 290.5 266.3 289.2 266.3 284.4 267.8 283 267.9 281.1 267.4 280.4 267.5 277.4 265.3 277.9 264.6 278.5 262.9 278.5 262.7 278 262.6 277.5 263.5 273.5 264.2 270.5 262.9 269.4 262.1 266.6 260.8 266.2 260.9 267 262.2 266.8 263.5 266.6 264.8 265.5 264.8 265.6 266.8 265.4 267.2 264.8 266.8 264.2 266 263.5 264.8 262.6 264 261.6 263.5 260.5 263.9 260.2 263.8 259.9 264.3 259.5 265.1 257.6 265 256.6 264.7 255.5 263.2 254.4 262.6 253.5 261.4 253.3 260.9 249.9 263.5 249.6 263.7 248.1 263.7 245.4 261.9 243.6 259.6 243.3 259.5 241.9 259.6 241.8 259.6 241 258.8 240.4 258.8 239.6 259.3 238 259.4 235.9 261 235 261 233.6 259.8 233.4 258.3 233.6 258.1 234.2 258.3 234.6 258.2 233.9 257.9 233.5 257.2 230.6 260.1 230.4 260.4 227.6 261.3 226.3 261.4 225.7 261 225.7 260.7 226 259.4 223.2 258.3 220.7 258.2 219.5 257.9 219.2 257.6 219 257.1 219.1 256.1 219 256 219.7 255.6 219.6 254.1 219.7 253.7 220.2 253.5 220.7 253.1 220.1 252.6 220.6 251.9 221.8 248.5 222.5 245.3 223.7 243.4 223 243.1 220.9 241.5 219.5 240 219.1 240.3 215.7 240.7 214.8 240.9 213.7 241.9 213.5 242.5 213.1 242.5 211.6 242 208.2 243 208 242.3 208 241.1 208.3 240.5 207.8 239.1 208.5 237 212 233.8 214.7 232 215.2 231.1 214.3 230.5 213.3 229.5 211.8 227.3 210.9 224.8 210.4 221.8 208.2 220.9 208.1 217.9 207.4 217.2 206.2 216.9 206.3 217.4 206.6 217.9 206.1 217.9 205 217.6 203.6 216.9 201.8 214 201.4 213 201.4 212.3 201.5 211.8 203.2 208.7 201.5 207.1 199.5 205.9 198 205.7 197.3 205.8 196 206.5 192.6 209 191.1 209.7 190 210 189.3 209.7 188.5 209 187.5 206.6 186.7 204 191.5 201.9 195.2 199.8 196.1 198.7 196.6 198.5 197.2 198.3 198.1 196.7 199.3 194 200 191.3 201.1 189.6 201 189.1 203.8 189.7 208.2 190 208.9 189.1 209.2 188.5 209.7 186.2 209.3 185 209.5 184.7 210 184.6 210 184.3 209 183.3 208.2 182.7 208.1 181.7 208.5 179.5 209.4 176.9 210.8 173.7 211.3 173.7 213.7 174.4 215.2 174.2 216.8 173.6 217.7 173 218 172.4 217.7 172.3 217.1 171.2 215.6 167.4 214.5 165.7 215.8 162.4 217.4 159.4 217.9 158.8 218.1 158.3 219.7 156 223 150.9 223.7 149.1 223.7 148.8 223.4 148.4 222.8 148.1 219.5 145.2 219.2 144.3 219.3 143.7 220.1 141.3 220.8 139.8 221 140.1"></polygon>
            <polygon id="SCOT-du-Sud-Gironde" points="241 258.8 241.8 259.6 241.9 259.6 243.3 259.5 243.6 259.6 245.4 261.9 248.1 263.7 249.6 263.7 249.9 263.5 253.3 260.9 253.5 261.4 254.4 262.6 255.5 263.2 256.6 264.7 257.6 265 259.5 265.1 259.9 264.3 260.2 263.8 260.5 263.9 261.6 263.5 262.6 264 263.5 264.8 264.2 266 264.8 266.8 265.4 267.2 265.6 266.8 265.5 264.8 266.6 264.8 266.8 263.5 267 262.2 266.2 260.9 266.6 260.8 269.4 262.1 270.5 262.9 273.5 264.2 277.5 263.5 278 262.6 278.5 262.7 278.5 262.9 277.9 264.6 277.4 265.3 280.4 267.5 281.1 267.4 283 267.9 284.4 267.8 289.2 266.3 290.5 266.3 291.1 264.9 291.1 260.9 291.2 260.3 291.5 259.9 292.5 260.4 294.9 261.4 296.1 261.6 297.2 261.7 297.4 261.5 298 262.1 297.1 263.5 296.3 265.1 296.6 270.2 298.1 270.8 298 271.4 298.8 274 299.5 275.8 299.3 276.3 299.8 277.5 301.9 280.1 302.7 282.7 304.4 278.6 306.1 279 307.7 279.8 310.1 281.3 310.7 282.8 313.8 286.3 315 286.2 315.4 286.8 315.9 287.9 316.2 289.3 317.2 291.6 322.9 292.2 322.5 293.7 321.9 295.3 322.5 296.8 322.7 296.9 324.5 297.7 325 297.7 325.8 297.6 327.4 296.5 329.5 296.1 329.7 296.5 330.6 296.8 332.8 297.1 334 299.1 332.7 301.4 331.1 303.4 330.4 305 330 308.3 328.4 308.5 327.6 308.7 325.1 307.2 324.8 306 324.4 305.6 323.8 306.2 323.6 307.3 324 309.5 324 310.2 325.9 311.8 327.3 313.8 326.7 316.2 326.4 316.1 323.6 316.5 322.5 317.2 319 320.9 318.8 321 317.9 322 317.3 322.2 312.7 323.3 311.6 323.7 310.8 324.2 311.7 326.9 311 328.9 309.5 330.8 308.2 335.4 307.7 335.8 306.3 335 301.2 334.2 300.5 333.9 299.3 335 297.5 336 296.8 337.4 296.7 338 295.3 337.4 292.7 335 291.6 334.6 291.5 335.6 291.6 336 292.9 337.5 294.9 339.4 295.8 341 295.6 342.2 294 344.3 293.8 344.5 292.9 344.3 292.1 344.7 291.8 345.2 290.1 347.1 288.2 349.9 288.3 351.4 287.9 353.1 288.1 354.8 288.6 357.7 288.8 360.9 288.6 362.2 288.9 364.2 289.2 364.6 289.8 364.7 291 364.5 291.2 364.1 292.9 365.4 293.5 366.8 293.6 368.5 292.9 369.2 292.4 370 290.9 370.9 290.3 372.5 290.2 375.4 290.7 375.9 289.7 376.9 289.4 377.8 291.3 382.2 292 382.9 293.2 383.5 293.3 384.7 294.6 385.4 296.1 387.2 296.1 387.5 295.6 388.4 294.2 389.7 295.2 390.4 297.3 391.1 297 391.9 295.2 394.6 293 394.3 292.5 393.9 292.3 392.7 291.2 392.5 289.3 393.1 288.3 393.7 285.9 395.6 285.2 396.7 283.9 396.4 283.5 396.5 279.2 396.9 277 397.8 275.7 399 273.6 398.8 272 404 273.8 405.6 276.3 408.8 278.1 409.2 283.8 417.2 281.8 418.1 283.2 420.5 283.7 423 283.7 424.4 283.5 425.3 281.5 425.7 279.5 427.2 278.2 430.5 276.4 433.3 276 432.3 275 431.5 274.7 431.4 271.5 435.8 269.3 436.6 268.5 437.6 267.1 438.4 266.8 438.4 264.1 436.5 264.3 435.5 263.4 435.3 262.5 437.7 259.3 439.9 253.4 434.9 252.7 433.5 252.2 431.6 251.1 429.4 250.5 428.6 248.1 426.4 247 426.1 245.8 426.5 243.2 427.6 239.6 427.5 239.1 430.3 240.2 446.5 230.8 449.7 228.9 450.4 228.2 450.2 220.1 447.4 206.3 446.4 205.6 446.1 201.8 445.3 200.2 436.9 200.3 436.2 203.2 420.5 201.9 420.3 199.1 420.4 198.3 420.2 198 419.5 196.6 418.3 193.9 416.5 192.3 415.1 192 408.8 181.2 408.1 172.2 403.5 169.8 395.2 162.2 391.9 159.9 389.4 152.5 386.7 146.8 384.4 145 383.9 143.3 383.7 143.4 383.7 146.8 382 147.2 381.5 147.3 379.8 146.9 374.3 146.8 370.5 146.5 369.8 144 368 143.3 367.6 135.6 365.2 134 367.4 129.8 366 128.3 365 130.8 361.7 131.3 359.8 131.2 357.4 130.9 356.7 129.7 356 128.7 356 127.2 356.3 126.4 356.2 125.9 354.9 124.7 353.9 123.3 352.5 122.2 351.6 121.8 350.6 122 349.8 123.1 347.6 124.2 347 126.2 346.6 126.6 346.7 127.2 347.4 128 347.5 135.7 348.4 139.4 349 143.9 348.1 147.8 347.4 150.4 345.7 151.3 344.3 151.9 342.3 152.3 339.7 152.3 336.4 152.8 334.3 156.3 335.7 160.9 336.5 164.7 332.1 165.6 328.2 168.5 328.9 174.4 328.8 176.8 327.4 177.6 327.2 179.1 327 180.3 322.3 184 317.1 178.9 315 178.9 313.4 178.9 310.2 180.5 310.4 181.6 310.4 185.9 309.2 187.9 306.1 189.8 301.2 186.2 296.7 188.9 292.8 190.9 290.4 191.2 288.6 191.2 286.2 191.6 285.7 192.2 285.9 192.8 285.8 194.6 284.8 196.5 284.1 197.4 284.1 198.4 284.6 200.3 285.7 200.5 286.3 200.1 287.4 198.5 289.2 198.2 289.6 198.3 290.4 198.8 291 199.5 291.1 201.7 290.7 205.1 291.3 205.3 291.4 205.5 291.8 206.1 293.5 207 297.8 208 298.4 208.7 299.3 210.7 300.9 213.3 302.1 214.9 300.6 217.3 298.9 217.7 297.8 218.2 297.2 218.8 297.1 220.5 297.3 222.7 298.6 223.3 298.6 224.2 298 224.7 297.2 225.1 296.9 223.3 295.1 222.1 294.1 221 291.4 219.7 289.5 218.7 288.7 220.2 285.7 222.8 283.3 222.7 282.5 222.6 281.5 222.8 279.7 222.6 278.6 221.9 277.3 220.4 275.6 219.9 274.8 221.3 274.1 222.1 273.4 223.3 271.8 223.9 270 225.4 268.6 227.9 268.8 229.8 268.6 231 264.8 231.1 264.3 233.7 264.6 235.2 262.6 235.9 261 238 259.4 239.6 259.3 240.4 258.8 241 258.8"></polygon>
            <polygon id="SCOT-des-Lacs-Medocains" points="29.6 108.4 35.2 109.1 41.4 109.3 42.6 109.4 45.6 110.2 48.2 113.8 48.8 114.1 55 115 68.1 118.3 70 116.9 72.2 115.1 72.7 114.3 79.2 121.7 77.3 126.6 75.3 129.9 73.7 135.4 73.8 138.7 71.9 144.4 75.1 147.7 77.5 151.7 84.2 156.9 87 160.2 84.1 167.3 81.1 170 78.3 169.1 74.5 167.1 73.8 167 70.5 167.3 66.2 171.2 63.6 173.9 61.1 178.4 64.8 181.4 65.8 183.8 64 187.6 62.3 194 62 198.1 63.3 202.3 65.2 204.6 61.8 204.9 54.4 206.8 53.5 207.5 50 209.4 45.8 215.6 43.9 219 40.2 216.4 35.2 214.4 33.6 214.8 31.3 214.9 11.2 214.6 13.6 192.1 15 174.8 15.8 166.4 16.8 153.5 17.5 146.7 18.9 131.1 20.4 119.5 20.5 117 21.6 106.8 29.6 108.4"></polygon>
            <polygon id="SCOT-Medoc" points="95.1 63.4 96.9 65.6 97.2 65.4 97.5 65.6 100.8 69.2 103.4 72.4 104.6 74.5 105.8 75.2 106.1 75.8 107.2 78.7 109.7 83.7 111 87.3 111.3 87.6 112.6 90.6 114.1 93.8 114.5 95.7 114.8 95.8 115 96.4 117.1 103.9 118.8 111.1 119.2 114.5 121.3 113.7 124.6 123.5 127 128.3 128.8 131.5 130 134.1 130.4 135.5 131.6 141.3 126.4 143.4 116.1 144.1 115.5 146.3 115.3 152.2 116.4 155 117 155.8 119.4 157.2 120.3 157.2 118 158.8 118 159.1 118.4 159.3 119.5 159 121.2 158.7 120.9 160.3 121.6 161.8 122.1 162 121.8 162.8 121.7 165.5 122 166.6 122.6 167.4 123.3 167.6 123.4 168.2 122.7 168.1 122.5 168.7 123.3 169.6 124.5 172 124.8 173.6 124.4 175.5 124.9 178.5 126.7 178.7 127.4 178.4 127.3 178.7 126.4 179.1 125.5 180.1 125 181.4 126.6 184 126.8 184.4 125.5 188.4 123.8 190.6 119.6 193.2 117.5 199.6 110.1 206.6 108.2 206.7 107.3 215.3 101.9 213.4 99.5 213.3 97.1 222.8 91.7 226.5 87.6 226.1 87.7 229.2 88.3 235.3 87.4 237.8 82.6 239.4 77.7 240.7 75.3 241.8 73.6 243 71.4 243.8 69.5 244.1 59.2 244.3 51.4 238.2 49.6 244 49.1 246.4 41.4 244.7 26.8 246.2 22.1 249.6 15.2 250.4 15.1 250.7 8.7 251.2 6.9 251.1 9 235.3 11.2 214.6 31.3 214.9 33.6 214.8 35.2 214.4 40.2 216.4 43.9 219 45.8 215.6 50 209.4 53.5 207.5 54.4 206.8 61.8 204.9 65.2 204.6 63.3 202.3 62 198.1 62.3 194 64 187.6 65.8 183.8 64.8 181.4 61.1 178.4 63.6 173.9 66.2 171.2 70.5 167.3 73.8 167 74.5 167.1 78.3 169.1 81.1 170 84.1 167.3 87 160.2 84.2 156.9 77.5 151.7 75.1 147.7 71.9 144.4 73.8 138.7 73.7 135.4 75.3 129.9 77.3 126.6 79.2 121.7 72.7 114.3 72.2 115.1 70 116.9 68.7 115.4 69.4 106.9 68.3 106.1 67.6 103.6 67.5 100.7 68.7 98.4 68.4 98.2 65.7 97.1 63.6 95.7 59 94.9 58.7 95.1 56.4 94.5 51.8 90.8 50.1 89.2 50.8 88.5 52.1 86.4 53.1 84.3 53.5 83 53.8 83.1 55.8 81.3 59 77.9 60 77.3 61.8 76.6 64.1 74.7 65.7 73.9 66.8 74.2 68.4 74.3 70.1 72.5 71.3 69.8 72.4 67.1 75.4 62.4 76.9 63.3 79 64.3 86.5 65.3 88.8 64.8 90.9 62.9 91.6 62 92.1 61.1 95.1 63.4"></polygon>
            <polygon id="SCOT-de-la-Haute-Gironde" points="157.2 77.2 158.4 78.8 160.3 80.1 159.3 83.9 159.2 86.9 160.6 91.3 161.6 91.4 162.5 91.2 163.7 91.6 164.5 91.9 165 92.7 166.6 92.5 168.9 93.1 170.1 93.8 173.2 94.9 179.5 92.6 182.9 93 186.1 94.3 191.7 96.8 192.6 97.2 193.8 98 195.1 99.2 195.6 100.1 195.8 100.5 195.7 101.3 195 103.1 193.8 106 193.7 107.3 193.9 107.6 194.2 107.6 197.4 107.6 197.7 107.8 198.2 110.2 197.4 112.3 197 112.7 196.3 115.7 195.7 118.9 195.4 122 198.2 125.7 199.2 129.6 199.5 130 200 130.6 200.8 134.8 201.8 138.4 203.2 141.8 204.1 137.9 207.8 133 208 133 210.5 133.1 212.7 133.9 217.7 137.6 217.9 138.4 217.9 140.1 218.1 141.3 218.8 143.1 219.3 143.7 219.2 144.3 219.5 145.2 222.8 148.1 223.4 148.4 223.7 148.8 223.7 149.1 223 150.9 219.7 156 218.1 158.3 217.9 158.8 217.4 159.4 215.8 162.4 214.5 165.7 215.6 167.4 217.1 171.2 217.7 172.3 218 172.4 217.7 173 216.8 173.6 215.2 174.2 213.7 174.4 211.3 173.7 210.8 173.7 208.1 173.3 208 174 205.5 174.1 204.5 174.6 204.2 174.2 204 173.3 202.9 171.6 199.8 169.2 199.3 169.2 197.4 169.5 195.3 168.7 191.7 168 188.4 167.9 187.3 168.4 187.2 168.5 181.4 169.9 180.8 170.6 180.6 171.3 181.2 172.7 181.1 173.8 180.6 174.8 179.9 175 179.4 175.9 180.6 178.1 181.6 179.4 182.4 179.9 181.6 182.1 180.1 183.8 178.7 185.9 178.4 187.3 178.1 187.3 177.7 187.9 177.5 187.8 176.3 186.8 172.9 185.4 171.7 184.4 170.6 183.1 169.3 181.6 167.8 180.3 163.4 177.6 161 177 159.2 176.7 155.9 176.6 155.4 176.4 153.9 175.6 152.6 177.4 154.3 180.8 152.2 181.8 151.1 182.6 148.8 180.4 144.6 175.3 144.9 175.1 144.3 174.3 143.4 173 140.9 169.4 139.5 167.6 137.8 165.5 136.5 164.2 135.6 162.9 133.8 159.5 133.4 157.3 133.2 155.2 133 152.7 132.2 144.3 131.6 141.3 130.4 135.5 130 134.1 128.8 131.5 127 128.3 124.6 123.5 121.3 113.7 131.1 111.4 132.4 111.3 131.9 110.1 131.1 101.9 130.4 97.7 129.9 95.6 130.3 95.5 130.2 95.3 129.8 95.3 127 83.6 127.1 82.3 127.7 81.5 128.2 81.4 128.7 81.8 142.9 83.2 145 84.5 145.4 84.4 146.6 84.1 150.3 82.7 152.2 82.8 152.8 83.4 154 83.7 154.4 83.5 154.6 80.1 154.6 79 155.3 78.2 155.9 77.2 156.1 76.4 157.2 77.2"></polygon>
        </g>
    </g>
</svg>